{
    "Module": true,
    "SysModule": true,
    "SysTask": true,
    "SysRole": true,
    "SysMenu": true,
    "Dashboard": true,
    "UserGroup": true,
    "Users": true,
    "Staticpage": true,
    "Menu": true,
    "News": true,
    "NewsCategory": true,
    "Article": true,
    "Activity": true,
    "Announcement": true,
    "WebsiteCategory": true,
    "WebsiteLink": true,
    "Infographic": true,
    "Config": true,
    "Document": true,
    "GalleryVideo": true,
    "GalleryImage": true,
    "City": true,
    "Village": true,
    "RW": true,
    "Rw": true,
    "SubDistrict": true,
    "Rt": true,
    "Citizen": true,
    "Religion": true,
    "Latter": true,
    "Letter": true,
    "ProductName": true,
    "Variant": true,
    "Size": true,
    "Productvariant": true,
    "Productsize": true,
    "ProductSize": true,
    "ProductVariant": true,
    "Product": true,
    "ProductIn": true,
    "ProductOut": true,
    "Transaction": true,
    "HystoryProductIn": true,
    "HystoryProductOut": true,
    "HistoryProductIn": true,
    "HistoryProductOut": true,
    "Landing": true,
    "ProductOutGk": true,
    "Merchant": true,
    "Setting": true
}